[{
  "id": 39,
  "title": "Obligation vaccinale : Inscription à l'action de défense en justice",
  "fancy_title": "Obligation vaccinale : Inscription à l&rsquo;action de défense en justice",
  "slug": "obligation-vaccinale-inscription-a-laction-de-defense-en-justice",
  "posts_count": 4,
  "reply_count": 0,
  "highest_post_number": 4,
  "image_url": null,
  "created_at": "2021-09-16T16:05:19.492Z",
  "last_posted_at": "2021-09-16T16:06:51.667Z",
  "bumped": true,
  "bumped_at": "2021-09-16T16:05:19.704Z",
  "archetype": "regular",
  "unseen": false,
  "pinned": true,
  "unpinned": null,
  "excerpt": "Qui est concerné ?\nVous êtes concerné par l’obligation vaccinale et souhaitez vous défendre ? \nVous pouvez rejoindre notre action, pour partager les frais d’avocat entre tous. \nMême si, suivant les cas, les juridictions&hellip;",
  "visible": true,
  "closed": false,
  "archived": false,
  "bookmarked": null,
  "liked": null,
  "tags": [],
  "views": 410,
  "like_count": 0,
  "has_summary": false,
  "last_poster_username": "benoit",
  "category_id": 22,
  "pinned_globally": true,
  "featured_link": null,
  "posters": [{
    "id": 2,
    "username": "benoit",
    "name": null,
    "avatar_template": "/user_avatar/forum.mayennelibre.fr/benoit/{size}/5_2.png",
    "flair_name": null,
    "admin": true,
    "trust_level": 1,
    "avatar": "https:/forum.mayennelibre.fr/user_avatar/forum.mayennelibre.fr/benoit/32/5_2.png"
  }],
  "date": "2021-09-16T16:05:19.492Z",
  "url": "https:/forum.mayennelibre.fr/t/obligation-vaccinale-inscription-a-laction-de-defense-en-justice/39"
}, {
  "id": 7,
  "title": "Bienvenue sur le forum!",
  "fancy_title": "Bienvenue sur le forum!",
  "slug": "bienvenue-sur-le-forum",
  "posts_count": 1,
  "reply_count": 0,
  "highest_post_number": 1,
  "image_url": null,
  "created_at": "2021-08-30T15:39:29.075Z",
  "last_posted_at": "2021-08-30T15:39:29.134Z",
  "bumped": true,
  "bumped_at": "2021-09-16T08:41:03.906Z",
  "archetype": "regular",
  "unseen": false,
  "pinned": true,
  "unpinned": null,
  "excerpt": "Qui sommes nous ?\nNous sommes des simples citoyens, mayennais, organisé au sein de collectifs défendant les libertés individuelles. \nNous demandons la sortie de l’état d’urgence sanitaire, et le rétablissement des liber&hellip;",
  "visible": true,
  "closed": false,
  "archived": false,
  "bookmarked": null,
  "liked": null,
  "tags": [],
  "views": 48,
  "like_count": 0,
  "has_summary": false,
  "last_poster_username": "system",
  "category_id": 1,
  "pinned_globally": true,
  "featured_link": null,
  "posters": [{
    "id": -1,
    "username": "system",
    "name": "system",
    "avatar_template": "/uploads/default/original/1X/82c1afd87c2a7f36a600af09ab5b1a7680e206e5.png",
    "flair_name": null,
    "admin": true,
    "moderator": true,
    "trust_level": 4,
    "avatar": "https:/forum.mayennelibre.fr/uploads/default/original/1X/82c1afd87c2a7f36a600af09ab5b1a7680e206e5.png"
  }],
  "date": "2021-08-30T15:39:29.075Z",
  "url": "https:/forum.mayennelibre.fr/t/bienvenue-sur-le-forum/7"
}]